STATS 767 Project
…
* A subset of the research from Orinda Longitudinal Study of Myopia

* Conducted in 1989-1990 and 2000-2001

* Consists of 618 observations and 17 variables

However, we are only interested in seven of the variables.

```r
myopia
```

```
#> # A tibble: 618 x 7
#>   myopic   age sporthr readhr comphr studyhr  tvhr
#>   <chr>  <dbl>   <dbl>  <dbl>  <dbl>   <dbl> <dbl>
#> 1 Yes        6      45      8      0       0    10
#> 2 No         6       4      0      1       1     7
#> 3 No         6      14      0      2       0    10
#> 4 Yes        6      18     11      0       0     4
#> 5 No         5      14      0      0       0     4
#> 6 No         6      10      6      2       1    19
#> # ... with 612 more rows
```
…
